Data Visualisation using RShiny
…
raw_data %>%
  ___(____________) %>%
  ___(region) %>%
  ___(mean_age = ________)

Summary - section 1.2c

Subset for humans, and summarise the mean age per region

raw_data %>%
  filter(species=="human") %>%
  group_by(region) %>%
  summarise(mean_age = mean(age))

## # A tibble: 28 x 2
##    region           mean_age
##    <chr>               <dbl>
##  1 Arusha               43.5
##  2 Dar-es-salaam        42.6
##  3 Dodoma               49.6
##  4 Geita                47.9
##  5 Iringa                8  
##  6 Kagera               37.4
##  7 Kaskazini Unguja     74  
##  8 Katavi               22  
##  9 Kigoma               45.2
## 10 Kilimanjaro          39.6
## # ... with 18 more rows
…
